Human Genome Analysis Lab 9 : Linking 23andME SNPs to the NHGRI-EBI Catalog of published genome-wide association studies
…
## # A tibble: 2 x 3
##   rsid    DISEASE.TRAIT                   STUDY                                 
##   <chr>   <chr>                           <chr>                                 
## 1 rs1745 Sex hormone-binding globulin l Using human genetics to understand th
## 2 rs1745 Sex hormone-binding globulin l Using human genetics to understand th

Now onto the second approach  this time, you dont have a specific trait in mind. Youre more interested in discovering which traits have risk alleles that match the respective part of your genome.

We already have our have_risk_allele_count field. If its 1 or 2 then you have some sort of match. So, the full list of your matches and the associated studies could be retrieved in a manner like this.

filter(mySNPs_gwas_table, have_risk_allele_count >= 1) %>%
 select(rsid, your_genotype = genotype, strongest_risk_allele = risk_allele_clean, DISEASE.TRAIT, STUDY )

## # A tibble: 3,167 x 5
##    rsid    your_genotype strongest_risk_a DISEASE.TRAIT     STUDY              
##    <chr>   <fct>         <chr>             <chr>             <chr>              
##  1 rs1123 AG            A                 Serum alkaline p Genome-wide associ
##  2 rs2234 AG            A                 Autoimmune thyro FLT3 stop mutation
##  3 rs1456 GG            G                 Serum total chol Analysis of pleiot
##  4 rs3570 CT            C                 Systemic mastocy Results from a Gen
##  5 rs1158 AC            C                 Type 2 diabetes   Discovery of 318 n
##  6 rs3018 AG            G                 Asthma            Genome-wide analys
##  7 rs2242 AC            A                 Male-pattern bal Genetic prediction
##  8 rs3737 AA            A                 Corneal curvature Genome-wide associ
##  9 rs3737 AA            A                 Corneal curvature Genome-wide associ
## 10 rs3737 AA            A                 Corneal curvature Genome-wide associ
## #  with 3,157 more rows
…
